wx11c1 - 10.20.164.15,\\austech\is-server\djthornton\scripts\FTP Project\Testing\Source5\Test.txt,\\austech\is-server\djthornton\scripts\FTP Project\Testing\Dest5\Test.txt,False
mmvmc1 - 10.20.164.80,\\austech\is-server\djthornton\scripts\FTP Project\Testing\Source4\Test.txt,\\austech\is-server\djthornton\scripts\FTP Project\Testing\Dest4\Test.txt,True
1vbfc1 - 10.20.164.10,\\austech\is-server\djthornton\scripts\FTP Project\Testing\Source3\Test.txt,\\austech\is-server\djthornton\scripts\FTP Project\Testing\Dest3\Test.txt,False
|4SMCNN1 - 10.20.167.113,\\austech\is-server\djthornton\scripts\FTP Project\Testing\,\\4SMCNN1\c$\FTP Transfer Test\Files\,True|
