Yes,Austech,10.23.10.57,\\austech\is-voip\djthornton\Scripts\DTS Project\Testing\Source5\,\\austech\is-voip\djthornton\Scripts\DTS Project\Testing\Dest5\
Yes,Austech,10.23.10.57,\\austech\is-voip\djthornton\Scripts\DTS Project\Testing\Source4\,\\austech\is-voip\djthornton\Scripts\DTS Project\Testing\Dest4\
Yes,Austech,10.23.10.57,\\austech\is-voip\djthornton\Scripts\DTS Project\Testing\Source6\,\\austech\is-voip\djthornton\Scripts\DTS Project\Testing\Dest6\
